{
    "stat":"OK",
    "data":{
        "currentPage": 1,
        "totalPages": 3,
        "totalCount": 24,
        "collection": [
        {"id": 24143, "loginName": "test", "name": "杜茂华5555", "mobile": "15088721099", "dataStatus": 1, "email": "303405669@qq.com"},
        {"id": 24199, "loginName": "sdfs", "name": "sdf", "mobile": "18268100687", "dataStatus": 1, "email": "qw@c.om"},
        {"id": 24200, "loginName": "xc", "name": "佛挡杀佛", "mobile": "18268100688", "dataStatus": 1, "email": "sdf@dsd"},
        {"id": 24201, "loginName": "werr", "name": "ddd", "mobile": "18268100689", "dataStatus": 1, "email": "fd@dd"},
        {"id": 24202, "loginName": "sdd", "name": "dddd", "mobile": "18268100691", "dataStatus": 0, "email": "dsfsf@ss"},
        {"id": 24203, "loginName": "dfsdfs", "name": "是打发士大夫", "mobile": "18268100693", "dataStatus": 1, "email": "dsf@fss"},
        {"id": 24204, "loginName": "sfdf", "name": "sss", "mobile": "18268100696", "dataStatus": 0, "email": "sd@ddd"},
        {"id": 24207, "loginName": "sdfdsf", "name": "而特", "mobile": "18268100611", "dataStatus": 1, "email": "df@dd"},
        {"id": 24208, "loginName": "范德萨发的", "name": "555", "mobile": "18268100612", "dataStatus": 1, "email": "ff@dd"},
        {"id": 24209, "loginName": "sfaf", "name": "ddf", "mobile": "18268100613", "dataStatus": 1, "email": "fdf@fdgd"}
    ]}
}